{
  "EDITOR_STATE": {
    "allProjectFiles": {
      "551ae7ea-7b4d-4951-96b5-5fc21058fc72": {
        "id": "551ae7ea-7b4d-4951-96b5-5fc21058fc72",
        "parent": null,
        "name": "sachhhhh",
        "type": "DIRECTORY",
        "isDirectory": true,
        "children": [
          "4bf905d5-aa16-4c94-b7eb-53c029314259"
        ],
        "isRemovable": false,
        "filePath": "sachhhhh"
      },
      "4bf905d5-aa16-4c94-b7eb-53c029314259": {
        "id": "4bf905d5-aa16-4c94-b7eb-53c029314259",
        "parent": "551ae7ea-7b4d-4951-96b5-5fc21058fc72",
        "name": "lambda.js",
        "type": "JS_LAMBDA",
        "isDirectory": false,
        "children": [],
        "isRemovable": true,
        "filePath": "sachhhhh/lambda.js",
        "code": "let AWS = require('aws-sdk');\nconst s3 = new AWS.S3();\n\nexports.handler = function (event, context, callback) {\n    s3.listObjects({\n        'Bucket': 'cloud9-ktest',\n        'MaxKeys': 10,\n        'Prefix': ''\n    }).promise()\n        .then(data => {\n            console.log(data);           // successful response\n            /*\n            data = {\n                Contents: [\n                    {\n                       ETag: \"\\\"70ee1738b6b21e2c8a43f3a5ab0eee71\\\"\",\n                       Key: \"example1.jpg\",\n                       LastModified: \"<Date Representation>\",\n                       Owner: {\n                          DisplayName: \"myname\",\n                          ID: \"12345example25102679df27bb0ae12b3f85be6f290b936c4393484be31bebcc\"\n                       },\n                       Size: 11,\n                       StorageClass: \"STANDARD\"\n                    },\n                    // {...}\n                ]\n            }\n            */\n        })\n        .catch(err => {\n            console.log(err, err.stack); // an error occurred\n        });\n\n    callback(null, { \"message\": \"Successfully executed\" });\n}",
        "config": {
          "runtime": "nodejs10.x",
          "handler": "handler",
          "timeout": 103,
          "memory": 576,
          "layers": []
        },
        "triggers": [
          {
            "resourceName": "apigusEast1SIGMA733SIGMA733any",
            "config": {}
          }
        ],
        "testCases": {
          "09f942ad-f7fb-46fe-a5d7-0def3a484efd": {
            "id": "09f942ad-f7fb-46fe-a5d7-0def3a484efd",
            "name": "Test event",
            "functionId": "4bf905d5-aa16-4c94-b7eb-53c029314259",
            "event": "{\"key1\": \"value1\", \"key2\": \"value2\", \"key3\": \"value3\"}",
            "eventTemplate": "hello-world"
          }
        }
      }
    },
    "rootNode": "551ae7ea-7b4d-4951-96b5-5fc21058fc72",
    "openFiles": [
      "4bf905d5-aa16-4c94-b7eb-53c029314259"
    ],
    "currentFileId": "4bf905d5-aa16-4c94-b7eb-53c029314259",
    "resources": {
      "apigusEast1SIGMA733SIGMA733any": {
        "name": "apigusEast1SIGMA733SIGMA733any",
        "type": "API_GATEWAY",
        "config": {
          "selectedRegion": "us-east-1",
          "apiMode": 1,
          "apiName": "SIGMA-733",
          "apiId": "2ey3pzw7tg",
          "endpointType": "EDGE",
          "rootResourceId": "xlercklid0",
          "existingResources": {
            "/SIGMA-733": "4mkt7n",
            "/testhiru": "kountn",
            "/test002": "pyv6hl",
            "/": "xlercklid0",
            "/test": "yhie0x"
          },
          "resourceMode": 1,
          "resourcePath": "/SIGMA-733",
          "resourceName": "SIGMA-733",
          "resourceId": "4mkt7n",
          "restMethod": "ANY",
          "proxyIntegration": false,
          "enableCORS": false,
          "stageMode": 1,
          "stageName": "733",
          "stageDeploymentId": "zc0x3p",
          "mode": 1
        }
      },
      "s3cloud9Ktest": {
        "name": "s3cloud9Ktest",
        "type": "S3",
        "config": {
          "mode": 1,
          "bucket": {
            "region": "us-east-1",
            "name": "cloud9-ktest"
          }
        }
      }
    },
    "customTemplate": {
      "dialect": null,
      "definitions": null
    },
    "envVariables": [
      {
        "lambdaId": "all",
        "varKey": "SIGMA_AWS_ACC_ID",
        "varValue": null,
        "shouldPersist": false,
        "displayOnly": false,
        "editable": false
      }
    ],
    "packageJSON": {
      "dependencies": {
        "aws-sdk": {
          "name": "aws-sdk",
          "language": "javascript",
          "version": "2.176.0",
          "dev": true,
          "notRemovable": false
        }
      }
    }
  },
  "PROJECT_META": {
    "projectName": "sachhhhh",
    "projectDescription": "",
    "projectVersion": "1.0.0",
    "projectRegion": "us-east-1",
    "platform": "AWS",
    "platformRegions": {},
    "lastSave": 1574930612687
  },
  "VCS_STATE": {
    "provider": "BitBucket",
    "repo": {
      "name": "sachhhhh",
      "url": "https://bitbucket.org/indunilrajapakse/sachhhhh"
    }
  }
}